waves.vcd
$date
     Jun 04, 2024       14:02:16
$end

$version
 SystemC 3.0.0-Accellera --- May 31 2024 20:13:27
$end

$timescale
     1 ps
$end

$scope module SystemC $end
$var wire    1  aaaaa  clock       $end
$var wire    1  aaaab  reset       $end
$var wire    8  aaaac  parallel_data [7:0]  $end
$var wire    1  aaaad  load       $end
$var wire    1  aaaae  serial_data       $end
$var wire    1  aaaaf  ready       $end
$var wire    1  aaaag  valid       $end
$var wire   32  aaaah  bit_count [31:0]  $end
$var wire    8  aaaai  shift_reg [7:0]  $end
$upscope $end
$enddefinitions  $end

$comment
All initial values are dumped below at time 0 sec = 0 timescale units.
$end

$dumpvars
0aaaaa
1aaaab
b0 aaaac
0aaaad
0aaaae
0aaaaf
0aaaag
b0 aaaah
b0 aaaai
$end

#5000
1aaaaa

#10000
0aaaaa
0aaaab
b11110100 aaaac
1aaaad

#15000
1aaaaa
1aaaaf
b111 aaaah
b11110100 aaaai

#20000
0aaaaa

#25000
1aaaaa
0aaaad

#30000
0aaaaa

#35000
1aaaaa
1aaaae
1aaaag
b110 aaaah

#40000
0aaaaa

#45000
1aaaaa
b101 aaaah

#50000
0aaaaa

#55000
1aaaaa
b100 aaaah

#60000
0aaaaa

#65000
1aaaaa
b11 aaaah

#70000
0aaaaa

#75000
1aaaaa
0aaaae
b10 aaaah

#80000
0aaaaa

#85000
1aaaaa
1aaaae
b1 aaaah

#90000
0aaaaa

#95000
1aaaaa
0aaaae
b0 aaaah

#100000
0aaaaa

#105000
1aaaaa
b11111111111111111111111111111111 aaaah

#110000
0aaaaa

#115000
1aaaaa
0aaaaf
0aaaag

#120000
0aaaaa

#125000
1aaaaa
1aaaad

#130000
0aaaaa

#135000
1aaaaa
1aaaaf
b111 aaaah

#140000
0aaaaa

#145000
1aaaaa
0aaaad

#150000
0aaaaa

#155000
1aaaaa
1aaaae
1aaaag
b110 aaaah

#160000
0aaaaa

#165000
1aaaaa
b101 aaaah

#170000
0aaaaa

#175000
1aaaaa
b100 aaaah

#180000
0aaaaa

#185000
1aaaaa
b11 aaaah

#190000
0aaaaa

#195000
1aaaaa
0aaaae
b10 aaaah

#200000
0aaaaa

#205000
1aaaaa
1aaaae
b1 aaaah

#210000
0aaaaa
b10000001 aaaac

#215000
1aaaaa
0aaaae
b0 aaaah

#220000
0aaaaa

#225000
1aaaaa
b11111111111111111111111111111111 aaaah

#230000
0aaaaa

#235000
1aaaaa
0aaaaf
0aaaag

#240000
0aaaaa

#245000
1aaaaa
1aaaad

#250000
0aaaaa

#255000
1aaaaa
1aaaaf
b111 aaaah
b10000001 aaaai

#260000
0aaaaa

#265000
1aaaaa
0aaaad

#270000
0aaaaa

#275000
1aaaaa
1aaaae
1aaaag
b110 aaaah

#280000
0aaaaa

#285000
1aaaaa
0aaaae
b101 aaaah

#290000
0aaaaa

#295000
1aaaaa
b100 aaaah

#300000
0aaaaa

#305000
1aaaaa
b11 aaaah

#310000
0aaaaa

#315000
1aaaaa
b10 aaaah

#320000
0aaaaa

#325000
1aaaaa
b1 aaaah

#330000
0aaaaa

#335000
1aaaaa
b0 aaaah

#340000
0aaaaa

#345000
1aaaaa
1aaaae
b11111111111111111111111111111111 aaaah

#350000
0aaaaa

#355000
1aaaaa
0aaaaf
0aaaag

#360000
0aaaaa

#365000
1aaaaa
1aaaad

#370000
0aaaaa

#375000
1aaaaa
1aaaaf
b111 aaaah

#380000
0aaaaa

#385000
1aaaaa
0aaaad

#390000
0aaaaa

#395000
1aaaaa
1aaaag
b110 aaaah

#400000
0aaaaa

#405000
1aaaaa
0aaaae
b101 aaaah

#410000
0aaaaa
b11101 aaaac

#415000
1aaaaa
b100 aaaah

#420000
0aaaaa

#425000
1aaaaa
b11 aaaah

#430000
0aaaaa

#435000
1aaaaa
b10 aaaah

#440000
0aaaaa

#445000
1aaaaa
b1 aaaah

#450000
0aaaaa

#455000
1aaaaa
b0 aaaah

#460000
0aaaaa

#465000
1aaaaa
1aaaae
b11111111111111111111111111111111 aaaah

#470000
0aaaaa

#475000
1aaaaa
0aaaaf
0aaaag

#480000
0aaaaa

#485000
1aaaaa
1aaaad

#490000
0aaaaa

#495000
1aaaaa
1aaaaf
b111 aaaah
b11101 aaaai

#500000
0aaaaa

#505000
1aaaaa
0aaaad

#510000
0aaaaa

#515000
1aaaaa
0aaaae
1aaaag
b110 aaaah

#520000
0aaaaa

#525000
1aaaaa
b101 aaaah

#530000
0aaaaa

#535000
1aaaaa
b100 aaaah

#540000
0aaaaa

#545000
1aaaaa
1aaaae
b11 aaaah

#550000
0aaaaa

#555000
1aaaaa
b10 aaaah

#560000
0aaaaa

#565000
1aaaaa
b1 aaaah

#570000
0aaaaa

#575000
1aaaaa
0aaaae
b0 aaaah

#580000
0aaaaa

#585000
1aaaaa
1aaaae
b11111111111111111111111111111111 aaaah

#590000
0aaaaa

#595000
1aaaaa
0aaaaf
0aaaag

#600000
0aaaaa

#605000
1aaaaa
1aaaad

#610000
0aaaaa
b11101010 aaaac

#615000
1aaaaa
1aaaaf
b111 aaaah
b11101010 aaaai

#620000
0aaaaa

#625000
1aaaaa
0aaaad

#630000
0aaaaa

#635000
1aaaaa
1aaaag
b110 aaaah

#640000
0aaaaa

#645000
1aaaaa
b101 aaaah

#650000
0aaaaa

#655000
1aaaaa
b100 aaaah

#660000
0aaaaa

#665000
1aaaaa
0aaaae
b11 aaaah

#670000
0aaaaa

#675000
1aaaaa
1aaaae
b10 aaaah

#680000
0aaaaa

#685000
1aaaaa
0aaaae
b1 aaaah

#690000
0aaaaa

#695000
1aaaaa
1aaaae
b0 aaaah

#700000
0aaaaa

#705000
1aaaaa
0aaaae
b11111111111111111111111111111111 aaaah

#710000
0aaaaa

#715000
1aaaaa
0aaaaf
0aaaag

#720000
0aaaaa

#725000
1aaaaa
1aaaad

#730000
0aaaaa

#735000
1aaaaa
1aaaaf
b111 aaaah

#740000
0aaaaa

#745000
1aaaaa
0aaaad

#750000
0aaaaa

#755000
1aaaaa
1aaaae
1aaaag
b110 aaaah

#760000
0aaaaa

#765000
1aaaaa
b101 aaaah

#770000
0aaaaa

#775000
1aaaaa
b100 aaaah

#780000
0aaaaa

#785000
1aaaaa
0aaaae
b11 aaaah

#790000
0aaaaa

#795000
1aaaaa
1aaaae
b10 aaaah

#800000
0aaaaa

#805000
1aaaaa
0aaaae
b1 aaaah

#810000
0aaaaa
b1010010 aaaac

#815000
1aaaaa
1aaaae
b0 aaaah

#820000
0aaaaa

#825000
1aaaaa
0aaaae
b11111111111111111111111111111111 aaaah

#830000
0aaaaa

#835000
1aaaaa
0aaaaf
0aaaag

#840000
0aaaaa

#845000
1aaaaa
1aaaad

#850000
0aaaaa

#855000
1aaaaa
1aaaaf
b111 aaaah
b1010010 aaaai

#860000
0aaaaa

#865000
1aaaaa
0aaaad

#870000
0aaaaa

#875000
1aaaaa
1aaaag
b110 aaaah

#880000
0aaaaa

#885000
1aaaaa
1aaaae
b101 aaaah

#890000
0aaaaa

#895000
1aaaaa
0aaaae
b100 aaaah

#900000
0aaaaa

#905000
1aaaaa
1aaaae
b11 aaaah

#910000
0aaaaa

#915000
1aaaaa
0aaaae
b10 aaaah

#920000
0aaaaa

#925000
1aaaaa
b1 aaaah

#930000
0aaaaa

#935000
1aaaaa
1aaaae
b0 aaaah

#940000
0aaaaa

#945000
1aaaaa
0aaaae
b11111111111111111111111111111111 aaaah

#950000
0aaaaa

#955000
1aaaaa
0aaaaf
0aaaag

#960000
0aaaaa

#965000
1aaaaa
1aaaad

#970000
0aaaaa

#975000
1aaaaa
1aaaaf
b111 aaaah

#980000
0aaaaa

#985000
1aaaaa
0aaaad

#990000
0aaaaa

#995000
1aaaaa
1aaaag
b110 aaaah

#1000000
0aaaaa

#1005000
1aaaaa
1aaaae
b101 aaaah

